{
    "response": {
        "status": "ok",
        "userTier": "developer",
        "total": 2188371,
        "startIndex": 1,
        "pageSize": 10,
        "currentPage": 1,
        "pages": 218838,
        "orderBy": "newest",
        "results": [
            {
                "id": "australia-news/live/2020/apr/26/australia-coronavirus-update-latest-scott-morrison-economy-health-nsw-victoria-queensland-schools-live-news",
                "type": "liveblog",
                "sectionId": "australia-news",
                "sectionName": "Australia news",
                "webPublicationDate": "2020-04-26T03:02:14Z",
                "webTitle": "Australia coronavirus update latest: Queensland to relax some restrictions from Friday – live news",
                "webUrl": "https://www.theguardian.com/australia-news/live/2020/apr/26/australia-coronavirus-update-latest-scott-morrison-economy-health-nsw-victoria-queensland-schools-live-news",
                "apiUrl": "https://content.guardianapis.com/australia-news/live/2020/apr/26/australia-coronavirus-update-latest-scott-morrison-economy-health-nsw-victoria-queensland-schools-live-news",
                "fields": {
                    "headline": "Australia coronavirus update latest: Queensland to relax some restrictions from Friday midnight – live news",
                    "shortUrl": "https://gu.com/p/dm5fq",
                    "thumbnail": "https://media.guim.co.uk/959da254cb16fbcbefa071c568c81b61524fff4b/0_445_6720_4032/500.jpg"
                },
                "isHosted": false,
                "pillarId": "pillar/news",
                "pillarName": "News"
            },
            {
                "id": "world/live/2020/apr/26/coronavirus-live-news-trump-steps-back-as-deaths-worldwide-pass-200000",
                "type": "liveblog",
                "sectionId": "world",
                "sectionName": "World news",
                "webPublicationDate": "2020-04-26T03:01:44Z",
                "webTitle": "Coronavirus live news: Trump steps back from briefings as global deaths pass 200,000",
                "webUrl": "https://www.theguardian.com/world/live/2020/apr/26/coronavirus-live-news-trump-steps-back-as-deaths-worldwide-pass-200000",
                "apiUrl": "https://content.guardianapis.com/world/live/2020/apr/26/coronavirus-live-news-trump-steps-back-as-deaths-worldwide-pass-200000",
                "fields": {
                    "headline": "Coronavirus live news: Trump steps back from briefings as global deaths pass 200,000",
                    "shortUrl": "https://gu.com/p/dm5nc",
                    "thumbnail": "https://media.guim.co.uk/54085f9619571b0d5fb0a29e25135e56f7f7f334/0_0_5352_3211/500.jpg"
                },
                "isHosted": false,
                "pillarId": "pillar/news",
                "pillarName": "News"
            },
            {
                "id": "sport/2020/apr/25/justin-rohrwasser-new-england-patriots-kicker-tattoo-three-percenters-nfl-draft",
                "type": "article",
                "sectionId": "sport",
                "sectionName": "Sport",
                "webPublicationDate": "2020-04-26T02:31:14Z",
                "webTitle": "Patriots' new kicker Rohrwasser denies tattoo represents rightwing militia",
                "webUrl": "https://www.theguardian.com/sport/2020/apr/25/justin-rohrwasser-new-england-patriots-kicker-tattoo-three-percenters-nfl-draft",
                "apiUrl": "https://content.guardianapis.com/sport/2020/apr/25/justin-rohrwasser-new-england-patriots-kicker-tattoo-three-percenters-nfl-draft",
                "fields": {
                    "headline": "Patriots' new kicker Rohrwasser denies tattoo represents rightwing militia",
                    "shortUrl": "https://gu.com/p/dm68f",
                    "thumbnail": "https://media.guim.co.uk/4c1eb816dd4e8b7d74f40fed9cc574beb284c760/0_98_2000_1201/500.jpg"
                },
                "isHosted": false,
                "pillarId": "pillar/sport",
                "pillarName": "Sport"
            },
            {
                "id": "world/2020/apr/26/marama-davidson-parliament-is-a-little-insulated-bubble-of-disconnection",
                "type": "article",
                "sectionId": "world",
                "sectionName": "World news",
                "webPublicationDate": "2020-04-26T02:22:02Z",
                "webTitle": "Marama Davidson: parliament is a little, insulated bubble of disconnection",
                "webUrl": "https://www.theguardian.com/world/2020/apr/26/marama-davidson-parliament-is-a-little-insulated-bubble-of-disconnection",
                "apiUrl": "https://content.guardianapis.com/world/2020/apr/26/marama-davidson-parliament-is-a-little-insulated-bubble-of-disconnection",
                "fields": {
                    "headline": "Marama Davidson: parliament is a little, insulated bubble of disconnection",
                    "shortUrl": "https://gu.com/p/dyz24",
                    "thumbnail": "https://media.guim.co.uk/263466a32a232dd0af9168e207c408d4c95c047c/509_963_3918_2351/500.jpg"
                },
                "isHosted": false,
                "pillarId": "pillar/news",
                "pillarName": "News"
            },
            {
                "id": "australia-news/2020/apr/26/australias-coronavirus-tracing-app-set-to-launch-today-despite-lingering-privacy-concerns",
                "type": "article",
                "sectionId": "australia-news",
                "sectionName": "Australia news",
                "webPublicationDate": "2020-04-26T01:23:33Z",
                "webTitle": "Australia's coronavirus tracing app set to launch today despite lingering privacy concerns",
                "webUrl": "https://www.theguardian.com/australia-news/2020/apr/26/australias-coronavirus-tracing-app-set-to-launch-today-despite-lingering-privacy-concerns",
                "apiUrl": "https://content.guardianapis.com/australia-news/2020/apr/26/australias-coronavirus-tracing-app-set-to-launch-today-despite-lingering-privacy-concerns",
                "fields": {
                    "headline": "Australia's coronavirus tracing app set to launch today despite lingering privacy concerns",
                    "shortUrl": "https://gu.com/p/dm5yh",
                    "thumbnail": "https://media.guim.co.uk/ca7992f8fa51fe5b6becdb14866f9d368900dbf1/0_158_3353_2011/500.jpg"
                },
                "isHosted": false,
                "pillarId": "pillar/news",
                "pillarName": "News"
            },
            {
                "id": "music/2020/apr/26/music-from-the-home-front-concert-shows-vitality-and-sensitivity-can-co-exist",
                "type": "article",
                "sectionId": "music",
                "sectionName": "Music",
                "webPublicationDate": "2020-04-26T00:40:30Z",
                "webTitle": "Music From the Home Front concert shows vitality and sensitivity can coexist",
                "webUrl": "https://www.theguardian.com/music/2020/apr/26/music-from-the-home-front-concert-shows-vitality-and-sensitivity-can-co-exist",
                "apiUrl": "https://content.guardianapis.com/music/2020/apr/26/music-from-the-home-front-concert-shows-vitality-and-sensitivity-can-co-exist",
                "fields": {
                    "headline": "Music From the Home Front concert shows vitality and sensitivity can coexist",
                    "shortUrl": "https://gu.com/p/dm5y8",
                    "thumbnail": "https://media.guim.co.uk/c4fe25c76ef0bb0b30a5bd39e2c64f53d3de2214/114_110_3136_1882/500.jpg"
                },
                "isHosted": false,
                "pillarId": "pillar/arts",
                "pillarName": "Arts"
            },
            {
                "id": "world/live/2020/apr/25/coronavirus-live-news-brazils-health-system-on-verge-of-collapse-medics-warn",
                "type": "liveblog",
                "sectionId": "world",
                "sectionName": "World news",
                "webPublicationDate": "2020-04-26T00:20:12Z",
                "webTitle": "Coronavirus live news: Cuomo to involve pharmacists in testing – as it happened",
                "webUrl": "https://www.theguardian.com/world/live/2020/apr/25/coronavirus-live-news-brazils-health-system-on-verge-of-collapse-medics-warn",
                "apiUrl": "https://content.guardianapis.com/world/live/2020/apr/25/coronavirus-live-news-brazils-health-system-on-verge-of-collapse-medics-warn",
                "fields": {
                    "headline": "Coronavirus live news: Cuomo to involve pharmacists in testing – as it happened",
                    "shortUrl": "https://gu.com/p/dmxd8",
                    "thumbnail": "https://media.guim.co.uk/2c09133e90f60c5d98fa0b4ff141f5182ac86f4a/0_171_5120_3074/500.jpg"
                },
                "isHosted": false,
                "pillarId": "pillar/news",
                "pillarName": "News"
            },
            {
                "id": "world/2020/apr/26/coronavirus-latest-at-a-glance-april-25",
                "type": "article",
                "sectionId": "world",
                "sectionName": "World news",
                "webPublicationDate": "2020-04-25T23:18:48Z",
                "webTitle": "Coronavirus latest: at a glance",
                "webUrl": "https://www.theguardian.com/world/2020/apr/26/coronavirus-latest-at-a-glance-april-25",
                "apiUrl": "https://content.guardianapis.com/world/2020/apr/26/coronavirus-latest-at-a-glance-april-25",
                "fields": {
                    "headline": "Coronavirus latest: at a glance",
                    "shortUrl": "https://gu.com/p/dm5fc",
                    "thumbnail": "https://media.guim.co.uk/e7200859fb487792e1336e456cb1a1b0c126614c/0_0_2560_1536/500.jpg"
                },
                "isHosted": false,
                "pillarId": "pillar/news",
                "pillarName": "News"
            },
            {
                "id": "politics/2020/apr/25/boris-johnson-lockdown-dilemma-grim-virus-data",
                "type": "article",
                "sectionId": "politics",
                "sectionName": "Politics",
                "webPublicationDate": "2020-04-25T23:12:20Z",
                "webTitle": "Johnson faces lockdown dilemma as scientists warn over grim virus data",
                "webUrl": "https://www.theguardian.com/politics/2020/apr/25/boris-johnson-lockdown-dilemma-grim-virus-data",
                "apiUrl": "https://content.guardianapis.com/politics/2020/apr/25/boris-johnson-lockdown-dilemma-grim-virus-data",
                "fields": {
                    "headline": "Johnson faces lockdown dilemma as scientists warn over grim virus data",
                    "shortUrl": "https://gu.com/p/dm4m7",
                    "thumbnail": "https://media.guim.co.uk/93d085d72ad3dd6a7b6c81aad02f56cb18222a8f/0_97_3500_2100/500.jpg"
                },
                "isHosted": false,
                "pillarId": "pillar/news",
                "pillarName": "News"
            },
            {
                "id": "business/2020/apr/25/sainsburys-man-at-top-steps-down-panic-buying-revenues-mike-coupe",
                "type": "article",
                "sectionId": "business",
                "sectionName": "Business",
                "webPublicationDate": "2020-04-25T23:05:00Z",
                "webTitle": "Sainsbury’s top man steps down just as the panic-buying revenues roll in",
                "webUrl": "https://www.theguardian.com/business/2020/apr/25/sainsburys-man-at-top-steps-down-panic-buying-revenues-mike-coupe",
                "apiUrl": "https://content.guardianapis.com/business/2020/apr/25/sainsburys-man-at-top-steps-down-panic-buying-revenues-mike-coupe",
                "fields": {
                    "headline": "Sainsbury’s top man steps down just as the panic-buying revenues roll in",
                    "shortUrl": "https://gu.com/p/dmvbj",
                    "thumbnail": "https://media.guim.co.uk/65fbc339c4c225f301e4f50cef255ac2ea736415/0_0_3500_2101/500.jpg"
                },
                "isHosted": false,
                "pillarId": "pillar/news",
                "pillarName": "News"
            }
        ]
    }
}